<svg width="2555" height="614" viewBox="0 0 2555 614" fill="none" xmlns="http://www.w3.org/2000/svg">
<g clip-path="url(#clip0_1527_20780)">
<path d="M192.75 259.294C165.528 211.175 182.576 150.407 230.42 123.46C278.265 96.2387 339.032 113.287 365.979 161.131C393.201 208.975 376.428 269.743 328.584 296.689C280.464 323.911 219.696 307.138 192.75 259.294Z" fill="#B40000"/>
<path d="M555.159 85.5166L553.509 307.689L552.135 530.412C551.585 595.579 481.193 635.174 425.099 602.179L233.447 488.892L41.5195 375.331C-14.2989 342.335 -13.474 261.495 42.8943 229.599L117.136 187.529C111.086 232.349 123.46 280.468 157.281 319.238C198.801 366.807 267.268 385.78 327.486 366.807C430.324 333.811 471.844 218.325 421.8 129.511C403.377 97.0652 375.33 73.1432 343.434 59.3948L429.224 11.0007C485.592 -20.8954 555.709 20.3496 555.159 85.5166Z" fill="#B40000"/>
<path d="M328.584 296.689C280.464 323.911 219.696 307.138 192.75 259.294C165.528 211.175 182.576 150.407 230.42 123.46C278.265 96.2387 339.032 113.287 365.979 161.131C393.201 208.975 376.428 269.743 328.584 296.689Z" fill="white"/>
<path d="M328.584 296.689C280.464 323.911 219.696 307.138 192.75 259.294C165.528 211.175 182.576 150.407 230.42 123.46C278.265 96.2387 339.032 113.287 365.979 161.131C393.201 208.975 376.428 269.743 328.584 296.689Z" fill="#B40000"/>
<path d="M857.078 178.179C855.703 180.654 854.053 182.303 852.403 183.678C850.753 184.778 848.829 185.603 846.354 185.603C843.604 185.603 840.58 184.228 836.73 181.479C833.155 178.729 828.481 175.704 822.982 172.405C817.482 169.105 810.883 166.08 803.184 163.331C795.485 160.581 786.136 159.206 775.137 159.206C764.689 159.206 755.615 160.581 747.641 163.331C739.666 166.08 733.067 169.93 727.843 174.604C722.618 179.279 718.494 185.053 715.744 191.652C712.995 198.251 711.62 205.126 711.62 212.55C711.62 222.174 714.094 230.148 718.769 236.472C723.443 242.796 729.768 248.295 737.467 252.695C745.166 257.094 753.965 260.944 763.864 264.243C773.762 267.543 783.661 270.843 794.11 274.417C804.559 277.992 814.458 281.841 824.356 286.241C834.255 290.64 843.054 296.14 850.753 303.014C858.453 309.888 864.777 317.862 869.451 327.761C874.126 337.384 876.6 349.483 876.6 363.781C876.6 378.904 874.126 392.928 868.901 406.126C863.677 419.324 856.253 430.873 846.354 440.497C836.455 450.121 824.356 457.82 810.058 463.594C795.76 469.093 779.537 472.118 761.114 472.118C738.842 472.118 718.494 467.994 700.346 460.02C682.198 452.045 666.525 441.047 653.602 427.298L667.075 405.301C668.45 403.651 669.825 402.002 671.749 400.902C673.674 399.802 675.599 398.977 677.799 398.977C679.998 398.977 682.198 399.802 684.948 401.452C687.698 403.101 690.722 405.301 694.022 407.776C697.321 410.251 701.171 413 705.57 416.3C709.97 419.324 714.919 422.074 720.419 424.824C725.918 427.298 732.242 429.498 739.116 431.148C745.991 432.798 753.965 433.623 762.764 433.623C773.762 433.623 783.661 431.973 792.185 428.948C800.709 425.924 808.133 421.524 814.183 416.025C820.232 410.526 824.631 403.926 827.931 396.227C831.231 388.528 832.606 380.004 832.606 370.655C832.606 360.207 830.131 351.683 825.456 345.084C820.782 338.484 814.458 332.985 806.759 328.311C799.059 323.911 790.26 320.062 780.362 317.037C770.463 314.012 760.289 310.713 750.115 307.413C739.941 304.114 729.768 300.264 719.869 296.14C709.97 292.015 701.171 286.241 693.472 279.367C685.773 272.492 679.724 263.968 674.774 253.52C669.825 243.071 667.625 230.423 667.625 215.299C667.625 203.201 669.825 191.377 674.774 180.104C679.449 168.83 686.323 158.656 695.397 149.857C704.471 141.058 715.469 133.909 728.668 128.685C741.866 123.461 756.989 120.711 774.037 120.711C793.285 120.711 810.608 123.736 826.556 129.785C842.229 135.834 856.253 144.633 868.076 156.182L856.803 178.179H857.078Z" fill="#B40000"/>
<path d="M921.972 259.567C935.445 246.644 949.744 237.02 965.417 230.421C980.815 224.096 998.138 220.797 1017.11 220.797C1030.58 220.797 1042.68 222.997 1053.41 227.396C1063.86 231.796 1072.93 238.12 1080.08 246.094C1087.23 254.068 1092.73 263.692 1096.3 275.24C1099.88 286.514 1101.8 299.162 1101.8 312.636V467.992H1082.83C1078.7 467.992 1075.4 467.442 1073.2 466.067C1071 464.692 1069.08 461.942 1067.98 458.093L1063.31 434.996C1056.98 440.77 1050.66 446.269 1044.61 450.669C1038.56 455.343 1032.23 459.193 1025.36 462.217C1018.76 465.242 1011.61 467.717 1003.91 469.367C996.213 471.016 987.964 471.841 978.615 471.841C969.267 471.841 960.193 470.466 951.944 467.992C943.695 465.242 936.27 461.393 930.221 456.168C924.172 450.944 919.222 444.345 915.648 436.096C912.073 428.122 910.148 418.498 910.148 407.499C910.148 397.875 912.898 388.801 918.123 379.727C923.347 370.929 931.871 362.955 943.695 356.08C955.518 349.206 970.916 343.432 989.889 339.307C1008.86 334.908 1032.23 332.433 1060.01 331.883V312.911C1060.01 293.938 1055.88 279.64 1047.91 270.016C1039.66 260.392 1027.83 255.443 1012.16 255.443C1001.71 255.443 992.639 256.817 985.765 259.292C978.615 262.042 972.566 264.792 967.342 268.091C962.117 271.391 957.718 274.415 953.868 276.89C950.019 279.64 946.444 280.74 942.595 280.74C939.845 280.74 937.37 279.915 935.17 278.54C932.971 276.89 931.321 275.24 929.946 272.766L922.247 259.017L921.972 259.567ZM1060.01 358.83C1040.48 359.38 1023.71 361.03 1009.69 363.504C995.663 365.979 984.665 369.279 975.866 373.128C967.067 377.253 960.743 381.927 956.893 387.152C953.043 392.651 951.119 398.7 951.119 405.299C951.119 411.899 952.219 417.123 954.143 421.797C956.343 426.472 959.093 430.321 962.667 433.071C966.242 436.096 970.641 438.295 975.316 439.67C980.265 441.045 985.49 441.595 990.989 441.595C998.413 441.595 1005.29 440.77 1011.61 439.395C1017.94 437.745 1023.71 435.546 1029.21 432.796C1034.71 430.046 1039.93 426.472 1045.16 422.347C1050.11 418.223 1055.06 413.823 1060.01 408.599V358.28V358.83Z" fill="#B40000"/>
<path d="M1237.91 472.121C1218.66 472.121 1204.08 466.897 1193.64 456.173C1183.19 445.449 1178.24 430.051 1178.24 409.979V261.222H1149.09C1146.62 261.222 1144.42 260.397 1142.49 259.022C1140.84 257.372 1139.74 255.173 1139.74 251.873V234.825L1179.61 229.876L1189.51 154.81C1190.06 152.335 1191.16 150.41 1192.81 149.036C1194.46 147.386 1196.66 146.836 1199.41 146.836H1221.13V230.426H1291.52V261.497H1221.13V407.229C1221.13 417.403 1223.61 425.102 1228.56 430.051C1233.51 435.001 1239.83 437.475 1247.8 437.475C1252.2 437.475 1256.05 436.926 1259.35 435.551C1262.65 434.451 1265.4 433.076 1267.88 431.701C1270.35 430.326 1272.28 428.951 1273.93 427.852C1275.58 426.752 1276.95 425.927 1278.33 425.927C1280.53 425.927 1282.45 427.302 1284.38 430.051L1296.75 450.399C1289.32 457.273 1280.53 462.772 1270.08 466.622C1259.63 470.471 1248.9 472.396 1237.91 472.396V472.121Z" fill="#B40000"/>
<path d="M1535.15 225.197V468.267H1509.85C1503.8 468.267 1499.95 465.242 1498.3 459.468L1495 433.346C1484.55 444.895 1472.73 454.519 1459.53 461.393C1446.33 468.542 1431.49 472.117 1414.44 472.117C1401.24 472.117 1389.42 469.917 1379.24 465.517C1369.07 461.118 1360.54 454.794 1353.67 446.82C1346.8 438.846 1341.57 429.222 1338.27 417.673C1334.97 406.4 1333.05 393.751 1333.05 380.003V224.922H1375.67V380.003C1375.67 398.426 1379.79 412.724 1388.32 422.623C1396.84 432.796 1409.49 437.746 1426.81 437.746C1439.46 437.746 1451.28 434.721 1462.28 428.672C1473.28 422.623 1483.45 414.374 1492.53 403.925V224.922H1535.15V225.197Z" fill="#B40000"/>
<path d="M1764.47 124.289C1789.21 124.289 1810.38 127.314 1827.98 133.088C1845.58 138.862 1860.15 146.836 1871.7 157.285C1883.25 167.459 1891.5 179.557 1897 193.581C1902.5 207.604 1905.25 222.452 1905.25 238.675C1905.25 255.998 1902.5 272.221 1897 286.519C1891.5 301.092 1882.98 313.466 1871.43 323.915C1859.88 334.363 1845.31 342.337 1827.71 348.387C1810.11 354.436 1789.21 357.186 1765.02 357.186H1722.67V474.046H1641.55V124.289H1764.74H1764.47ZM1764.47 295.868C1785.64 295.868 1800.76 290.919 1810.11 280.745C1819.46 270.571 1824.13 256.548 1824.13 238.4C1824.13 230.426 1823.03 223.002 1820.56 216.678C1818.08 210.079 1814.51 204.579 1809.56 199.63C1804.61 194.955 1798.56 191.381 1791.14 188.631C1783.71 186.157 1774.91 184.782 1764.74 184.782H1722.4V295.593H1764.74L1764.47 295.868Z" fill="#B40000"/>
<path d="M2289.11 298.891C2289.11 324.188 2284.71 347.56 2275.91 369.282C2267.11 391.004 2255.01 409.977 2239.06 425.925C2223.12 441.873 2204.14 454.522 2181.87 463.596C2159.6 472.67 2134.85 477.344 2107.63 477.344C2080.41 477.344 2055.66 472.67 2033.39 463.596C2011.11 454.522 1991.87 441.873 1975.92 425.925C1959.97 409.977 1947.6 391.004 1939.07 369.282C1930.27 347.56 1925.88 323.913 1925.88 298.891C1925.88 273.869 1930.27 250.222 1939.07 228.499C1947.87 206.777 1959.97 187.804 1975.92 171.856C1991.87 155.908 2010.84 143.26 2033.39 134.186C2055.66 125.112 2080.68 120.438 2107.63 120.438C2134.58 120.438 2159.6 125.112 2181.87 134.186C2204.14 143.26 2223.12 155.908 2239.06 171.856C2255.01 187.804 2267.11 206.777 2275.91 228.499C2284.71 250.222 2289.11 273.594 2289.11 298.891ZM2206.07 298.891C2206.07 281.568 2203.87 266.17 2199.47 252.146C2195.07 238.398 2188.47 226.575 2180.22 216.951C2171.97 207.327 2161.52 199.903 2149.42 194.953C2137.33 189.729 2123.58 187.254 2107.9 187.254C2092.23 187.254 2078.21 189.729 2066.11 194.953C2054.01 200.178 2043.56 207.327 2035.31 216.951C2027.06 226.575 2020.46 238.123 2016.06 252.146C2011.66 266.17 2009.47 281.568 2009.47 298.891C2009.47 316.214 2011.66 331.887 2016.06 345.91C2020.46 359.933 2027.06 371.482 2035.31 381.106C2043.84 390.729 2054.01 398.154 2066.11 403.103C2078.48 408.052 2092.23 410.527 2107.9 410.527C2123.58 410.527 2137.33 408.052 2149.42 403.103C2161.52 398.154 2171.97 390.729 2180.22 381.106C2188.74 371.482 2195.07 359.933 2199.47 345.91C2203.87 332.162 2206.07 316.489 2206.07 298.891Z" fill="#B40000"/>
<path d="M2529.98 195.229C2527.5 199.078 2525.03 201.828 2522.28 203.752C2519.53 205.677 2516.23 206.502 2512.1 206.502C2508.53 206.502 2504.4 205.402 2500.28 202.928C2496.15 200.728 2491.21 197.978 2485.98 195.229C2480.48 192.479 2474.43 189.729 2467.56 187.529C2460.68 185.33 2452.71 183.955 2444.19 183.955C2429.06 183.955 2417.79 187.255 2410.36 193.579C2402.94 200.178 2399.09 208.702 2399.09 219.976C2399.09 227.125 2401.29 232.899 2405.69 237.573C2410.09 242.248 2416.14 246.097 2423.29 249.672C2430.44 253.246 2438.96 255.996 2448.31 259.021C2457.66 261.77 2467.28 265.07 2476.91 268.37C2486.53 271.669 2496.15 275.794 2505.5 280.468C2514.85 285.143 2523.1 290.917 2530.53 298.341C2537.95 305.765 2543.72 314.289 2548.12 324.738C2552.52 335.186 2554.72 347.56 2554.72 362.133C2554.72 378.356 2551.97 393.479 2546.2 407.503C2540.7 421.526 2532.45 433.899 2522 444.348C2511.28 454.797 2498.35 463.046 2482.68 469.095C2467.01 475.144 2449.41 478.169 2429.61 478.169C2418.61 478.169 2407.62 477.069 2396.34 474.869C2385.07 472.67 2374.07 469.37 2363.62 465.521C2353.17 461.671 2343 456.722 2333.92 450.947C2324.85 445.173 2316.6 439.124 2309.73 432.25L2333.65 394.304C2335.57 391.555 2338.05 389.355 2341.07 387.43C2344.1 385.505 2347.67 384.68 2351.25 384.68C2355.92 384.68 2360.87 386.33 2365.82 389.355C2370.77 392.379 2376.27 395.679 2382.32 399.529C2388.37 403.378 2395.52 406.678 2403.49 409.702C2411.46 412.727 2420.81 414.377 2431.81 414.377C2446.66 414.377 2457.93 411.077 2466.18 404.753C2474.43 398.154 2478.28 387.98 2478.28 373.957C2478.28 365.708 2476.08 359.109 2471.68 354.159C2467.28 349.21 2461.23 344.81 2454.08 341.511C2446.94 338.211 2438.41 335.186 2429.34 332.712C2419.99 330.237 2410.64 327.212 2400.74 324.188C2390.84 321.163 2381.49 317.314 2372.14 312.639C2362.8 307.965 2354.55 302.19 2347.4 294.766C2340.25 287.342 2334.2 277.993 2329.8 266.995C2325.4 255.996 2323.2 242.248 2323.2 225.75C2323.2 212.551 2325.95 199.903 2331.17 187.255C2336.4 174.881 2344.1 163.607 2354.55 153.984C2364.72 144.36 2377.37 136.386 2392.22 130.611C2407.07 124.837 2424.11 121.812 2443.36 121.812C2454.08 121.812 2464.53 122.637 2474.71 124.287C2484.88 125.937 2494.5 128.412 2503.58 131.711C2512.65 135.011 2521.18 138.86 2529.15 143.535C2537.12 148.209 2544 153.159 2550.32 158.933L2530.25 196.603L2529.98 195.229Z" fill="#B40000"/>
</g>
<defs>
<clipPath id="clip0_1527_20780">
<rect width="2555" height="614" fill="white"/>  
</clipPath>
</defs>
</svg>
